module gitlab.com/okanseremet/todo-golang

go 1.15

require (
	github.com/gorilla/handlers v1.5.1
	github.com/gorilla/mux v1.8.0
	github.com/pact-foundation/pact-go v1.5.1
	github.com/stretchr/testify v1.4.0
)
